<?xml version="1.0" encoding="iso-8859-1"?>
<!-- Generator: Adobe Illustrator 16.0.0, SVG Export Plug-In . SVG Version: 6.00 Build 0)  -->
<!DOCTYPE svg PUBLIC "-//W3C//DTD SVG 1.1//EN" "http://www.w3.org/Graphics/SVG/1.1/DTD/svg11.dtd">
<svg xmlns="http://www.w3.org/2000/svg" xmlns:xlink="http://www.w3.org/1999/xlink" version="1.1" id="Capa_1" x="0px" y="0px" width="512px" height="512px" viewBox="0 0 517.95 517.95" style="enable-background:new 0 0 517.95 517.95;" xml:space="preserve">
<g>
	<g>
		<path d="M73.881,35.62H41.047C18.378,35.62,0,53.998,0,76.666v225.749c0,22.668,18.373,41.047,41.047,41.047h32.834    c22.668,0,41.047-18.379,41.047-41.047V76.667C114.928,53.998,96.549,35.62,73.881,35.62z" fill="#c54234"/>
		<path d="M484.441,92.891c-1.389-8.96-7.326-21.781-13.262-28.629l-14.064-16.23c-5.943-6.854-18.104-12.405-27.172-12.405H161.305    c-9.064,0-16.42,7.35-16.42,16.42v275.002c0,9.07,6.01,20.637,13.164,26.219c18.372,14.34,52.075,43.109,75.331,77.484    c5.08,7.51,12.081,20.551,18.103,27.338c23.079,26.012,57.222,25.846,77.13,22.945c8.973-1.311,13.557-10.404,10.508-18.941    l-36.842-103.16c-3.055-8.537,1.83-15.459,10.893-15.459h152.346c9.07,0,22.994-3.285,31.102-7.344l8.941-4.467    c8.109-4.059,13.562-14.609,12.174-23.568L484.441,92.891z" fill="#c54234"/>
	</g>
</g>
<g>
</g>
<g>
</g>
<g>
</g>
<g>
</g>
<g>
</g>
<g>
</g>
<g>
</g>
<g>
</g>
<g>
</g>
<g>
</g>
<g>
</g>
<g>
</g>
<g>
</g>
<g>
</g>
<g>
</g>
</svg>
